Started at Wed Dec 23 01:36:04 UTC 2020
Processing test
Offering test to Project Build Discarder
test accepted by Project Build Discarder
Processing voluntarily-gamma-auto-nimbal
Offering voluntarily-gamma-auto-nimbal to Project Build Discarder
voluntarily-gamma-auto-nimbal accepted by Project Build Discarder
Processing voluntarily-gamma-auto-nimbal_dup
Offering voluntarily-gamma-auto-nimbal_dup to Project Build Discarder
voluntarily-gamma-auto-nimbal_dup accepted by Project Build Discarder
Processing test_deepak/test
Offering test_deepak/test to Project Build Discarder
Finished at Wed Dec 23 01:36:04 UTC 2020. 2ms
Started at Wed Dec 23 02:36:04 UTC 2020
Processing test
Offering test to Project Build Discarder
test accepted by Project Build Discarder
Processing voluntarily-gamma-auto-nimbal
Offering voluntarily-gamma-auto-nimbal to Project Build Discarder
voluntarily-gamma-auto-nimbal accepted by Project Build Discarder
Processing voluntarily-gamma-auto-nimbal_dup
Offering voluntarily-gamma-auto-nimbal_dup to Project Build Discarder
voluntarily-gamma-auto-nimbal_dup accepted by Project Build Discarder
Processing test_deepak/test
Offering test_deepak/test to Project Build Discarder
Finished at Wed Dec 23 02:36:04 UTC 2020. 1ms
Started at Wed Dec 23 03:36:04 UTC 2020
Processing test
Offering test to Project Build Discarder
test accepted by Project Build Discarder
Processing voluntarily-gamma-auto-nimbal
Offering voluntarily-gamma-auto-nimbal to Project Build Discarder
voluntarily-gamma-auto-nimbal accepted by Project Build Discarder
Processing voluntarily-gamma-auto-nimbal_dup
Offering voluntarily-gamma-auto-nimbal_dup to Project Build Discarder
voluntarily-gamma-auto-nimbal_dup accepted by Project Build Discarder
Processing test_deepak/test
Offering test_deepak/test to Project Build Discarder
Finished at Wed Dec 23 03:36:04 UTC 2020. 1ms
Started at Wed Dec 23 04:36:04 UTC 2020
Processing test
Offering test to Project Build Discarder
test accepted by Project Build Discarder
Processing voluntarily-gamma-auto-nimbal
Offering voluntarily-gamma-auto-nimbal to Project Build Discarder
voluntarily-gamma-auto-nimbal accepted by Project Build Discarder
Processing voluntarily-gamma-auto-nimbal_dup
Offering voluntarily-gamma-auto-nimbal_dup to Project Build Discarder
voluntarily-gamma-auto-nimbal_dup accepted by Project Build Discarder
Processing test_deepak/test
Offering test_deepak/test to Project Build Discarder
Finished at Wed Dec 23 04:36:04 UTC 2020. 2ms
Started at Wed Dec 23 05:36:04 UTC 2020
Processing test
Offering test to Project Build Discarder
test accepted by Project Build Discarder
Processing voluntarily-gamma-auto-nimbal
Offering voluntarily-gamma-auto-nimbal to Project Build Discarder
voluntarily-gamma-auto-nimbal accepted by Project Build Discarder
Processing voluntarily-gamma-auto-nimbal_dup
Offering voluntarily-gamma-auto-nimbal_dup to Project Build Discarder
voluntarily-gamma-auto-nimbal_dup accepted by Project Build Discarder
Processing test_deepak/test
Offering test_deepak/test to Project Build Discarder
Finished at Wed Dec 23 05:36:04 UTC 2020. 1ms
Started at Wed Dec 23 06:36:04 UTC 2020
Processing test
Offering test to Project Build Discarder
test accepted by Project Build Discarder
Processing voluntarily-gamma-auto-nimbal
Offering voluntarily-gamma-auto-nimbal to Project Build Discarder
voluntarily-gamma-auto-nimbal accepted by Project Build Discarder
Processing voluntarily-gamma-auto-nimbal_dup
Offering voluntarily-gamma-auto-nimbal_dup to Project Build Discarder
voluntarily-gamma-auto-nimbal_dup accepted by Project Build Discarder
Processing test_deepak/test
Offering test_deepak/test to Project Build Discarder
Finished at Wed Dec 23 06:36:04 UTC 2020. 1ms
Started at Wed Dec 23 07:36:04 UTC 2020
Processing test
Offering test to Project Build Discarder
test accepted by Project Build Discarder
Processing voluntarily-gamma-auto-nimbal
Offering voluntarily-gamma-auto-nimbal to Project Build Discarder
voluntarily-gamma-auto-nimbal accepted by Project Build Discarder
Processing voluntarily-gamma-auto-nimbal_dup
Offering voluntarily-gamma-auto-nimbal_dup to Project Build Discarder
voluntarily-gamma-auto-nimbal_dup accepted by Project Build Discarder
Processing test_deepak/test
Offering test_deepak/test to Project Build Discarder
Finished at Wed Dec 23 07:36:04 UTC 2020. 1ms
Started at Wed Dec 23 08:36:04 UTC 2020
Processing test
Offering test to Project Build Discarder
test accepted by Project Build Discarder
Processing voluntarily-gamma-auto-nimbal
Offering voluntarily-gamma-auto-nimbal to Project Build Discarder
voluntarily-gamma-auto-nimbal accepted by Project Build Discarder
Processing voluntarily-gamma-auto-nimbal_dup
Offering voluntarily-gamma-auto-nimbal_dup to Project Build Discarder
voluntarily-gamma-auto-nimbal_dup accepted by Project Build Discarder
Processing test_deepak/test
Offering test_deepak/test to Project Build Discarder
Finished at Wed Dec 23 08:36:04 UTC 2020. 1ms
Started at Wed Dec 23 09:36:04 UTC 2020
Processing test
Offering test to Project Build Discarder
test accepted by Project Build Discarder
Processing voluntarily-gamma-auto-nimbal
Offering voluntarily-gamma-auto-nimbal to Project Build Discarder
voluntarily-gamma-auto-nimbal accepted by Project Build Discarder
Processing voluntarily-gamma-auto-nimbal_dup
Offering voluntarily-gamma-auto-nimbal_dup to Project Build Discarder
voluntarily-gamma-auto-nimbal_dup accepted by Project Build Discarder
Processing test_deepak/test
Offering test_deepak/test to Project Build Discarder
Finished at Wed Dec 23 09:36:04 UTC 2020. 1ms
Started at Wed Dec 23 10:36:04 UTC 2020
Processing test
Offering test to Project Build Discarder
test accepted by Project Build Discarder
Processing voluntarily-gamma-auto-nimbal
Offering voluntarily-gamma-auto-nimbal to Project Build Discarder
voluntarily-gamma-auto-nimbal accepted by Project Build Discarder
Processing voluntarily-gamma-auto-nimbal_dup
Offering voluntarily-gamma-auto-nimbal_dup to Project Build Discarder
voluntarily-gamma-auto-nimbal_dup accepted by Project Build Discarder
Processing test_deepak/test
Offering test_deepak/test to Project Build Discarder
Finished at Wed Dec 23 10:36:04 UTC 2020. 1ms
Started at Wed Dec 23 11:36:04 UTC 2020
Processing test
Offering test to Project Build Discarder
test accepted by Project Build Discarder
Processing voluntarily-gamma-auto-nimbal
Offering voluntarily-gamma-auto-nimbal to Project Build Discarder
voluntarily-gamma-auto-nimbal accepted by Project Build Discarder
Processing voluntarily-gamma-auto-nimbal_dup
Offering voluntarily-gamma-auto-nimbal_dup to Project Build Discarder
voluntarily-gamma-auto-nimbal_dup accepted by Project Build Discarder
Processing test_deepak/test
Offering test_deepak/test to Project Build Discarder
Finished at Wed Dec 23 11:36:04 UTC 2020. 2ms
Started at Wed Dec 23 12:36:04 UTC 2020
Processing test
Offering test to Project Build Discarder
test accepted by Project Build Discarder
Processing voluntarily-gamma-auto-nimbal
Offering voluntarily-gamma-auto-nimbal to Project Build Discarder
voluntarily-gamma-auto-nimbal accepted by Project Build Discarder
Processing voluntarily-gamma-auto-nimbal_dup
Offering voluntarily-gamma-auto-nimbal_dup to Project Build Discarder
voluntarily-gamma-auto-nimbal_dup accepted by Project Build Discarder
Processing test_deepak/test
Offering test_deepak/test to Project Build Discarder
Finished at Wed Dec 23 12:36:04 UTC 2020. 2ms
Started at Wed Dec 23 13:36:04 UTC 2020
Processing test
Offering test to Project Build Discarder
test accepted by Project Build Discarder
Processing voluntarily-gamma-auto-nimbal
Offering voluntarily-gamma-auto-nimbal to Project Build Discarder
voluntarily-gamma-auto-nimbal accepted by Project Build Discarder
Processing voluntarily-gamma-auto-nimbal_dup
Offering voluntarily-gamma-auto-nimbal_dup to Project Build Discarder
voluntarily-gamma-auto-nimbal_dup accepted by Project Build Discarder
Processing test_deepak/test
Offering test_deepak/test to Project Build Discarder
Finished at Wed Dec 23 13:36:04 UTC 2020. 1ms
Started at Wed Dec 23 14:36:04 UTC 2020
Processing test
Offering test to Project Build Discarder
test accepted by Project Build Discarder
Processing voluntarily-gamma-auto-nimbal
Offering voluntarily-gamma-auto-nimbal to Project Build Discarder
voluntarily-gamma-auto-nimbal accepted by Project Build Discarder
Processing voluntarily-gamma-auto-nimbal_dup
Offering voluntarily-gamma-auto-nimbal_dup to Project Build Discarder
voluntarily-gamma-auto-nimbal_dup accepted by Project Build Discarder
Processing test_deepak/test
Offering test_deepak/test to Project Build Discarder
Finished at Wed Dec 23 14:36:04 UTC 2020. 1ms
Started at Wed Dec 23 15:36:04 UTC 2020
Processing test
Offering test to Project Build Discarder
test accepted by Project Build Discarder
Processing voluntarily-gamma-auto-nimbal
Offering voluntarily-gamma-auto-nimbal to Project Build Discarder
voluntarily-gamma-auto-nimbal accepted by Project Build Discarder
Processing voluntarily-gamma-auto-nimbal_dup
Offering voluntarily-gamma-auto-nimbal_dup to Project Build Discarder
voluntarily-gamma-auto-nimbal_dup accepted by Project Build Discarder
Processing test_deepak/test
Offering test_deepak/test to Project Build Discarder
Finished at Wed Dec 23 15:36:04 UTC 2020. 1ms
Started at Wed Dec 23 16:36:04 UTC 2020
Processing test
Offering test to Project Build Discarder
test accepted by Project Build Discarder
Processing voluntarily-gamma-auto-nimbal
Offering voluntarily-gamma-auto-nimbal to Project Build Discarder
voluntarily-gamma-auto-nimbal accepted by Project Build Discarder
Processing voluntarily-gamma-auto-nimbal_dup
Offering voluntarily-gamma-auto-nimbal_dup to Project Build Discarder
voluntarily-gamma-auto-nimbal_dup accepted by Project Build Discarder
Processing test_deepak/test
Offering test_deepak/test to Project Build Discarder
Finished at Wed Dec 23 16:36:04 UTC 2020. 2ms
Started at Wed Dec 23 17:36:04 UTC 2020
Processing test
Offering test to Project Build Discarder
test accepted by Project Build Discarder
Processing voluntarily-gamma-auto-nimbal
Offering voluntarily-gamma-auto-nimbal to Project Build Discarder
voluntarily-gamma-auto-nimbal accepted by Project Build Discarder
Processing voluntarily-gamma-auto-nimbal_dup
Offering voluntarily-gamma-auto-nimbal_dup to Project Build Discarder
voluntarily-gamma-auto-nimbal_dup accepted by Project Build Discarder
Processing test_deepak/test
Offering test_deepak/test to Project Build Discarder
Finished at Wed Dec 23 17:36:04 UTC 2020. 1ms
Started at Wed Dec 23 18:36:04 UTC 2020
Processing test
Offering test to Project Build Discarder
test accepted by Project Build Discarder
Processing voluntarily-gamma-auto-nimbal
Offering voluntarily-gamma-auto-nimbal to Project Build Discarder
voluntarily-gamma-auto-nimbal accepted by Project Build Discarder
Processing voluntarily-gamma-auto-nimbal_dup
Offering voluntarily-gamma-auto-nimbal_dup to Project Build Discarder
voluntarily-gamma-auto-nimbal_dup accepted by Project Build Discarder
Processing test_deepak/test
Offering test_deepak/test to Project Build Discarder
Finished at Wed Dec 23 18:36:04 UTC 2020. 1ms
Started at Wed Dec 23 19:36:04 UTC 2020
Processing test
Offering test to Project Build Discarder
test accepted by Project Build Discarder
Processing voluntarily-gamma-auto-nimbal
Offering voluntarily-gamma-auto-nimbal to Project Build Discarder
voluntarily-gamma-auto-nimbal accepted by Project Build Discarder
Processing voluntarily-gamma-auto-nimbal_dup
Offering voluntarily-gamma-auto-nimbal_dup to Project Build Discarder
voluntarily-gamma-auto-nimbal_dup accepted by Project Build Discarder
Processing test_deepak/test
Offering test_deepak/test to Project Build Discarder
Finished at Wed Dec 23 19:36:04 UTC 2020. 1ms
Started at Wed Dec 23 20:36:04 UTC 2020
Processing test
Offering test to Project Build Discarder
test accepted by Project Build Discarder
Processing voluntarily-gamma-auto-nimbal
Offering voluntarily-gamma-auto-nimbal to Project Build Discarder
voluntarily-gamma-auto-nimbal accepted by Project Build Discarder
Processing voluntarily-gamma-auto-nimbal_dup
Offering voluntarily-gamma-auto-nimbal_dup to Project Build Discarder
voluntarily-gamma-auto-nimbal_dup accepted by Project Build Discarder
Processing test_deepak/test
Offering test_deepak/test to Project Build Discarder
Finished at Wed Dec 23 20:36:04 UTC 2020. 3ms
Started at Wed Dec 23 21:36:04 UTC 2020
Processing test
Offering test to Project Build Discarder
test accepted by Project Build Discarder
Processing voluntarily-gamma-auto-nimbal
Offering voluntarily-gamma-auto-nimbal to Project Build Discarder
voluntarily-gamma-auto-nimbal accepted by Project Build Discarder
Processing voluntarily-gamma-auto-nimbal_dup
Offering voluntarily-gamma-auto-nimbal_dup to Project Build Discarder
voluntarily-gamma-auto-nimbal_dup accepted by Project Build Discarder
Processing test_deepak/test
Offering test_deepak/test to Project Build Discarder
Finished at Wed Dec 23 21:36:04 UTC 2020. 1ms
Started at Wed Dec 23 22:36:04 UTC 2020
Processing test
Offering test to Project Build Discarder
test accepted by Project Build Discarder
Processing voluntarily-gamma-auto-nimbal
Offering voluntarily-gamma-auto-nimbal to Project Build Discarder
voluntarily-gamma-auto-nimbal accepted by Project Build Discarder
Processing voluntarily-gamma-auto-nimbal_dup
Offering voluntarily-gamma-auto-nimbal_dup to Project Build Discarder
voluntarily-gamma-auto-nimbal_dup accepted by Project Build Discarder
Processing voluntarily-gamma-auto-nimbal_dup/nz.co.nz:getskills-automation
Offering voluntarily-gamma-auto-nimbal_dup/nz.co.nz:getskills-automation to Project Build Discarder
Processing test_deepak/test
Offering test_deepak/test to Project Build Discarder
Finished at Wed Dec 23 22:36:04 UTC 2020. 5ms
Started at Wed Dec 23 23:36:04 UTC 2020
Processing test
Offering test to Project Build Discarder
test accepted by Project Build Discarder
Processing voluntarily-gamma-auto-nimbal
Offering voluntarily-gamma-auto-nimbal to Project Build Discarder
voluntarily-gamma-auto-nimbal accepted by Project Build Discarder
Processing voluntarily-gamma-auto-nimbal_dup
Offering voluntarily-gamma-auto-nimbal_dup to Project Build Discarder
voluntarily-gamma-auto-nimbal_dup accepted by Project Build Discarder
Processing voluntarily-gamma-auto-nimbal_dup/nz.co.nz:getskills-automation
Offering voluntarily-gamma-auto-nimbal_dup/nz.co.nz:getskills-automation to Project Build Discarder
Processing test_deepak/test
Offering test_deepak/test to Project Build Discarder
Finished at Wed Dec 23 23:36:04 UTC 2020. 1ms
Started at Thu Dec 24 00:36:04 UTC 2020
Processing test
Offering test to Project Build Discarder
test accepted by Project Build Discarder
Processing voluntarily-gamma-auto-nimbal
Offering voluntarily-gamma-auto-nimbal to Project Build Discarder
voluntarily-gamma-auto-nimbal accepted by Project Build Discarder
Processing voluntarily-gamma-auto-nimbal_dup
Offering voluntarily-gamma-auto-nimbal_dup to Project Build Discarder
voluntarily-gamma-auto-nimbal_dup accepted by Project Build Discarder
Processing voluntarily-gamma-auto-nimbal_dup/nz.co.nz:getskills-automation
Offering voluntarily-gamma-auto-nimbal_dup/nz.co.nz:getskills-automation to Project Build Discarder
Processing test_deepak/test
Offering test_deepak/test to Project Build Discarder
Finished at Thu Dec 24 00:36:04 UTC 2020. 1ms
Started at Thu Dec 24 01:36:04 UTC 2020
Processing test
Offering test to Project Build Discarder
test accepted by Project Build Discarder
Processing voluntarily-gamma-auto-nimbal
Offering voluntarily-gamma-auto-nimbal to Project Build Discarder
voluntarily-gamma-auto-nimbal accepted by Project Build Discarder
Processing voluntarily-gamma-auto-nimbal_dup
Offering voluntarily-gamma-auto-nimbal_dup to Project Build Discarder
voluntarily-gamma-auto-nimbal_dup accepted by Project Build Discarder
Processing voluntarily-gamma-auto-nimbal_dup/nz.co.nz:getskills-automation
Offering voluntarily-gamma-auto-nimbal_dup/nz.co.nz:getskills-automation to Project Build Discarder
Processing test_deepak/test
Offering test_deepak/test to Project Build Discarder
Finished at Thu Dec 24 01:36:04 UTC 2020. 7ms
