Started at Tue Dec 22 20:14:27 UTC 2020
Finished at Tue Dec 22 20:14:27 UTC 2020. 2ms
Started at Tue Dec 22 21:14:27 UTC 2020
Finished at Tue Dec 22 21:14:27 UTC 2020. 3ms
Started at Tue Dec 22 22:14:27 UTC 2020
Finished at Tue Dec 22 22:14:27 UTC 2020. 1ms
Started at Tue Dec 22 23:14:27 UTC 2020
Processing test
Offering test to Project Build Discarder
Processing test_deepak/test
Offering test_deepak/test to Project Build Discarder
Finished at Tue Dec 22 23:14:27 UTC 2020. 3ms
Started at Wed Dec 23 00:14:27 UTC 2020
Processing test
Offering test to Project Build Discarder
test accepted by Project Build Discarder
Processing test_deepak/test
Offering test_deepak/test to Project Build Discarder
Finished at Wed Dec 23 00:14:27 UTC 2020. 16ms
